{
  "collectionName": "components_links_links",
  "info": {
    "name": "links",
    "icon": "link"
  },
  "options": {},
  "attributes": {
    "instagram": {
      "type": "string"
    },
    "website": {
      "type": "string"
    },
    "twitter": {
      "type": "string"
    }
  }
}
